<?xml version="1.0" encoding="UTF-8" standalone="no"?>
<!-- Created with Inkscape (http://www.inkscape.org/) -->

<svg
   xmlns:dc="http://purl.org/dc/elements/1.1/"
   xmlns:cc="http://creativecommons.org/ns#"
   xmlns:rdf="http://www.w3.org/1999/02/22-rdf-syntax-ns#"
   xmlns:svg="http://www.w3.org/2000/svg"
   xmlns="http://www.w3.org/2000/svg"
   xmlns:xlink="http://www.w3.org/1999/xlink"
   xmlns:sodipodi="http://sodipodi.sourceforge.net/DTD/sodipodi-0.dtd"
   xmlns:inkscape="http://www.inkscape.org/namespaces/inkscape"
   width="744.09448819"
   height="1052.3622047"
   id="svg2"
   version="1.1"
   inkscape:version="0.47 r22583"
   sodipodi:docname="pluto_logo_corp.svg"
   inkscape:export-filename="/home/aymeric/pluto_logo_corp-big.png"
   inkscape:export-xdpi="725.758"
   inkscape:export-ydpi="725.758">
  <defs
     id="defs4">
    <linearGradient
       inkscape:collect="always"
       id="linearGradient3719">
      <stop
         style="stop-color:#000000;stop-opacity:0.21152941"
         offset="0"
         id="stop3721" />
      <stop
         style="stop-color:#000000;stop-opacity:0;"
         offset="1"
         id="stop3723" />
    </linearGradient>
    <linearGradient
       inkscape:collect="always"
       id="linearGradient2873">
      <stop
         style="stop-color:#ffffff;stop-opacity:1;"
         offset="0"
         id="stop2875" />
      <stop
         style="stop-color:#ffffff;stop-opacity:0;"
         offset="1"
         id="stop2877" />
    </linearGradient>
    <inkscape:perspective
       sodipodi:type="inkscape:persp3d"
       inkscape:vp_x="0 : 526.18109 : 1"
       inkscape:vp_y="0 : 1000 : 0"
       inkscape:vp_z="744.09448 : 526.18109 : 1"
       inkscape:persp3d-origin="372.04724 : 350.78739 : 1"
       id="perspective10" />
    <inkscape:perspective
       id="perspective2832"
       inkscape:persp3d-origin="0.5 : 0.33333333 : 1"
       inkscape:vp_z="1 : 0.5 : 1"
       inkscape:vp_y="0 : 1000 : 0"
       inkscape:vp_x="0 : 0.5 : 1"
       sodipodi:type="inkscape:persp3d" />
    <linearGradient
       inkscape:collect="always"
       xlink:href="#linearGradient2873"
       id="linearGradient2879"
       x1="409.43396"
       y1="171.2301"
       x2="298.5199"
       y2="60.316044"
       gradientUnits="userSpaceOnUse"
       gradientTransform="matrix(1.0001469,0,0,1.0001469,-0.05259896,-0.02695274)" />
    <inkscape:perspective
       id="perspective2889"
       inkscape:persp3d-origin="0.5 : 0.33333333 : 1"
       inkscape:vp_z="1 : 0.5 : 1"
       inkscape:vp_y="0 : 1000 : 0"
       inkscape:vp_x="0 : 0.5 : 1"
       sodipodi:type="inkscape:persp3d" />
    <inkscape:perspective
       id="perspective2916"
       inkscape:persp3d-origin="0.5 : 0.33333333 : 1"
       inkscape:vp_z="1 : 0.5 : 1"
       inkscape:vp_y="0 : 1000 : 0"
       inkscape:vp_x="0 : 0.5 : 1"
       sodipodi:type="inkscape:persp3d" />
    <linearGradient
       inkscape:collect="always"
       xlink:href="#linearGradient3719"
       id="linearGradient3725"
       x1="217.68486"
       y1="377.98779"
       x2="217.68486"
       y2="345.65302"
       gradientUnits="userSpaceOnUse"
       gradientTransform="matrix(-3.6806588,0,0,-3.6806588,1189.9029,1938.3912)" />
  </defs>
  <sodipodi:namedview
     id="base"
     pagecolor="#ffffff"
     bordercolor="#666666"
     borderopacity="1.0"
     inkscape:pageopacity="0.0"
     inkscape:pageshadow="2"
     inkscape:zoom="1.22"
     inkscape:cx="268.4255"
     inkscape:cy="862.95878"
     inkscape:document-units="px"
     inkscape:current-layer="layer1"
     showgrid="false"
     inkscape:window-width="1020"
     inkscape:window-height="746"
     inkscape:window-x="0"
     inkscape:window-y="18"
     inkscape:window-maximized="0" />
  <metadata
     id="metadata7">
    <rdf:RDF>
      <cc:Work
         rdf:about="">
        <dc:format>image/svg+xml</dc:format>
        <dc:type
           rdf:resource="http://purl.org/dc/dcmitype/StillImage" />
        <dc:title></dc:title>
      </cc:Work>
    </rdf:RDF>
  </metadata>
  <g
     inkscape:label="Layer 1"
     inkscape:groupmode="layer"
     id="layer1">
    <flowRoot
       xml:space="preserve"
       id="flowRoot2816"
       style="font-size:40px;font-style:normal;font-weight:normal;fill:#000000;fill-opacity:1;stroke:none;font-family:Bitstream Vera Sans;opacity:1;color:#000000;fill-rule:nonzero;marker:none;visibility:visible;display:inline;overflow:visible;enable-background:accumulate;stroke-opacity:1;stroke-width:0.50941966999999999;stroke-miterlimit:4;stroke-dasharray:none;stroke-linejoin:miter;stroke-linecap:butt"
       transform="matrix(-3.6806588,0,0,3.6806588,1189.9029,-850.39914)"><flowRegion
         id="flowRegion2818"><rect
           id="rect2820"
           width="388.57144"
           height="457.14285"
           x="188.57143"
           y="235.21933"
           style="color:#000000;fill:#000000;fill-opacity:1;fill-rule:nonzero;stroke:none;marker:none;visibility:visible;display:inline;overflow:visible;enable-background:accumulate;stroke-opacity:1;stroke-width:0.50941966999999999;stroke-miterlimit:4;stroke-dasharray:none;stroke-linejoin:miter;stroke-linecap:butt" /></flowRegion><flowPara
         id="flowPara2822"
         style="font-size:144px;font-style:normal;font-variant:normal;font-weight:bold;font-stretch:normal;font-family:OFL Sorts Mill Goudy TT;-inkscape-font-specification:OFL Sorts Mill Goudy TT Medium;color:#000000;fill:#000000;fill-opacity:1;fill-rule:nonzero;stroke:none;marker:none;visibility:visible;display:inline;overflow:visible;enable-background:accumulate;stroke-opacity:1;stroke-width:0.50941966999999999;stroke-miterlimit:4;stroke-dasharray:none;stroke-linejoin:miter;stroke-linecap:butt">¶ </flowPara></flowRoot>    <path
       style="font-size:40px;font-style:normal;font-weight:normal;opacity:0.29999999999999999;fill:url(#linearGradient2879);fill-opacity:1;stroke:none;font-family:Bitstream Vera Sans"
       d="m 257.89154,62.232192 c -1.05995,3.82e-4 -2.12754,0.712112 -3.18797,2.125313 -1.05995,1.413957 -1.59375,2.450298 -1.59398,3.156713 2.3e-4,2.474138 1.4237,4.431399 4.25063,5.844608 2.474,1.060554 5.82346,2.484016 10.06397,4.250625 4.24096,1.76734 7.59044,3.871277 10.06398,6.344681 4.94775,5.654677 7.4388,17.304468 7.43859,34.973888 2.1e-4,35.6932 0.32482,81.46522 1.03141,137.30142 0.11303,17.73585 0.17315,32.76228 0.25003,48.47587 l 13.25194,-13.25195 c 0.0833,-20.3214 0.14706,-40.74475 0.2813,-64.38446 0.35359,-62.55067 0.53153,-110.42662 0.53133,-143.646096 2e-4,-2.826798 1.24571,-5.108669 3.71929,-6.87601 2.47395,-1.766607 5.28963,-2.656271 8.46999,-2.65664 6.3613,3.69e-4 9.56408,2.28224 9.56391,6.87601 0.70696,45.234896 1.06283,76.510206 1.06266,93.826276 1.7e-4,9.18854 1.7e-4,22.61765 0,40.28717 -0.35323,17.66997 -0.53116,30.74323 -0.53133,39.22452 2e-5,4.66416 -0.025,9.51869 -0.0313,14.28335 l 15.68981,-15.68981 c -1.59923,-1.6493 -2.40649,-3.46467 -2.40661,-5.46956 l 0,-18.56522 c 1.6e-4,-7.77448 0.17809,-18.17875 0.53133,-31.2546 0.35355,-13.07535 0.53149,-22.62122 0.53133,-28.6292 1.6e-4,-16.25589 1.6e-4,-29.50707 0,-39.75584 -0.35324,-10.60153 -0.53117,-17.33172 -0.53133,-20.15921 -0.35324,-3.18022 -0.53117,-5.64001 -0.53133,-7.40733 -0.35323,-1.766635 -0.53117,-3.190097 -0.53133,-4.250628 1.6e-4,-14.488844 4.95102,-21.721576 14.84593,-21.721943 10.602,3.67e-4 17.123,3.705699 19.59663,11.126634 2.82728,9.188625 4.60662,18.022747 5.31329,26.503897 0.35351,8.12841 0.53144,29.14613 0.53132,63.07176 5e-5,16.28984 -0.80444,30.12401 -2.34409,41.5061 l 89.76318,-89.76319 c -5.53823,-12.20765 -13.46986,-23.1592 -23.816,-32.848573 -22.26382,-20.849946 -46.30639,-31.254212 -72.10434,-31.25459 -9.89492,3.78e-4 -22.43439,3.78e-4 -37.63053,0 -15.19581,-0.353016 -26.31179,-0.530949 -33.3799,-0.531329 -3.18036,3.8e-4 -8.30915,-0.177553 -15.37726,-0.531328 -7.06767,-0.353015 -12.55234,-0.530946 -16.43991,-0.531328 l -6.34468,0 z"
       id="flowRoot2816-3" />
    <path
       style="font-size:40px;font-style:normal;font-weight:normal;color:#000000;fill:url(#linearGradient3725);fill-opacity:1;fill-rule:nonzero;stroke:none;marker:none;visibility:visible;display:inline;overflow:visible;enable-background:accumulate;font-family:Bitstream Vera Sans"
       d="M 387.75 547.15625 C 357.36262 547.15635 332.96776 561.29512 314.59375 589.5625 C 295.86676 617.82999 286.50021 652.9834 286.5 695.03125 C 286.50003 700.55387 286.47719 706.75353 286.46875 712.75 L 299.21875 712.75 C 299.2184 711.50444 299.21876 710.03572 299.21875 708.8125 C 299.21895 691.49863 300.6422 675.04707 303.46875 659.5 C 306.29569 643.9529 309.28885 632.48272 312.46875 625.0625 C 315.29568 617.64232 317.43056 613.93753 318.84375 613.9375 C 321.31733 613.93753 322.56267 615.86325 322.5625 619.75 C 322.56267 620.10337 322.38477 623.30569 322.03125 629.3125 C 321.32474 634.966 320.96892 644.83502 320.96875 658.96875 L 321.90625 712.75 L 335 712.75 C 334.81575 703.56028 334.75008 696.19384 334.75 690.78125 C 334.75016 689.36783 334.92807 686.90839 335.28125 683.375 C 335.28141 679.84153 335.28141 676.81712 335.28125 674.34375 C 335.28141 600.14171 346.92949 563.06258 370.25 563.0625 C 378.73036 563.06258 385.63746 565.16621 390.9375 569.40625 C 395.88441 573.64644 399.23338 578.41867 401 583.71875 C 402.41347 588.66561 404.01463 593.25993 405.78125 597.5 C 407.54805 601.74016 409.47378 603.84379 411.59375 603.84375 C 414.77392 603.84379 418.3008 599.42738 422.1875 590.59375 C 425.721 581.76023 427.50007 574.52856 427.5 568.875 C 427.50007 561.10153 426.07682 556.50721 423.25 555.09375 C 413.70981 549.7937 401.88382 547.15635 387.75 547.15625 z "
       id="flowRoot2816-9" />
  </g>
</svg>
